LAB09/simulation/qsim/LAB09.msim.vcd
$comment
	File created using the following command:
		vcd file LAB09.msim.vcd -direction
$end
$date
	Sun Dec 22 23:11:50 2019
$end
$version
	ModelSim Version 10.5b
$end
$timescale
	1ps
$end

$scope module LAB09_vlg_vec_tst $end
$var reg 8 ! A [7:0] $end
$var reg 8 " B [7:0] $end
$var reg 1 # Cin $end
$var reg 1 $ S0 $end
$var reg 1 % S1 $end
$var reg 1 & S2 $end
$var wire 1 ' G [7] $end
$var wire 1 ( G [6] $end
$var wire 1 ) G [5] $end
$var wire 1 * G [4] $end
$var wire 1 + G [3] $end
$var wire 1 , G [2] $end
$var wire 1 - G [1] $end
$var wire 1 . G [0] $end

$scope module i1 $end
$var wire 1 / gnd $end
$var wire 1 0 vcc $end
$var wire 1 1 unknown $end
$var tri1 1 2 devclrn $end
$var tri1 1 3 devpor $end
$var tri1 1 4 devoe $end
$var wire 1 5 G[0]~output_o $end
$var wire 1 6 G[1]~output_o $end
$var wire 1 7 G[2]~output_o $end
$var wire 1 8 G[3]~output_o $end
$var wire 1 9 G[4]~output_o $end
$var wire 1 : G[5]~output_o $end
$var wire 1 ; G[6]~output_o $end
$var wire 1 < G[7]~output_o $end
$var wire 1 = S0~input_o $end
$var wire 1 > S1~input_o $end
$var wire 1 ? Cin~input_o $end
$var wire 1 @ Mux3~1_combout $end
$var wire 1 A A[0]~input_o $end
$var wire 1 B B[0]~input_o $end
$var wire 1 C Add3~0_combout $end
$var wire 1 D Mux3~2_combout $end
$var wire 1 E Add1~0_combout $end
$var wire 1 F Add0~6_combout $end
$var wire 1 G Mux3~3_combout $end
$var wire 1 H Add0~3_combout $end
$var wire 1 I Mux8~0_combout $end
$var wire 1 J Add0~0_combout $end
$var wire 1 K Add0~1_combout $end
$var wire 1 L Add0~2_combout $end
$var wire 1 M Add0~4_combout $end
$var wire 1 N Mux3~4_combout $end
$var wire 1 O Mux3~0_combout $end
$var wire 1 P Mux3~6_combout $end
$var wire 1 Q Mux3~7_combout $end
$var wire 1 R S2~input_o $end
$var wire 1 S Mux3~5_combout $end
$var wire 1 T Mux8~1_combout $end
$var wire 1 U Mux8~1clkctrl_outclk $end
$var wire 1 V G[0]$latch~combout $end
$var wire 1 W A[1]~input_o $end
$var wire 1 X B[1]~input_o $end
$var wire 1 Y Mux2~0_combout $end
$var wire 1 Z Add1~1 $end
$var wire 1 [ Add1~2_combout $end
$var wire 1 \ Add0~11_combout $end
$var wire 1 ] Add3~1 $end
$var wire 1 ^ Add3~2_combout $end
$var wire 1 _ Add0~7_combout $end
$var wire 1 ` Add0~8_combout $end
$var wire 1 a Add0~5 $end
$var wire 1 b Add0~9_combout $end
$var wire 1 c Mux2~1_combout $end
$var wire 1 d Mux2~2_combout $end
$var wire 1 e Mux2~3_combout $end
$var wire 1 f G[1]$latch~combout $end
$var wire 1 g B[2]~input_o $end
$var wire 1 h A[2]~input_o $end
$var wire 1 i Mux1~0_combout $end
$var wire 1 j Add3~3 $end
$var wire 1 k Add3~4_combout $end
$var wire 1 l Add1~3 $end
$var wire 1 m Add1~4_combout $end
$var wire 1 n Add0~16_combout $end
$var wire 1 o Mux1~1_combout $end
$var wire 1 p Add0~12_combout $end
$var wire 1 q Add0~13_combout $end
$var wire 1 r Add0~10 $end
$var wire 1 s Add0~14_combout $end
$var wire 1 t Mux1~2_combout $end
$var wire 1 u Mux1~3_combout $end
$var wire 1 v G[2]$latch~combout $end
$var wire 1 w A[3]~input_o $end
$var wire 1 x B[3]~input_o $end
$var wire 1 y Add1~5 $end
$var wire 1 z Add1~6_combout $end
$var wire 1 { Add0~21_combout $end
$var wire 1 | Add3~5 $end
$var wire 1 } Add3~6_combout $end
$var wire 1 ~ Add0~17_combout $end
$var wire 1 !! Add0~18_combout $end
$var wire 1 "! Add0~15 $end
$var wire 1 #! Add0~19_combout $end
$var wire 1 $! Mux0~1_combout $end
$var wire 1 %! Mux0~2_combout $end
$var wire 1 &! Mux0~0_combout $end
$var wire 1 '! Mux0~3_combout $end
$var wire 1 (! G[3]$latch~combout $end
$var wire 1 )! A[4]~input_o $end
$var wire 1 *! B[4]~input_o $end
$var wire 1 +! Mux4~0_combout $end
$var wire 1 ,! Add3~7 $end
$var wire 1 -! Add3~8_combout $end
$var wire 1 .! Add1~7 $end
$var wire 1 /! Add1~8_combout $end
$var wire 1 0! Add0~26_combout $end
$var wire 1 1! Mux4~1_combout $end
$var wire 1 2! Add0~22_combout $end
$var wire 1 3! Add0~23_combout $end
$var wire 1 4! Add0~20 $end
$var wire 1 5! Add0~24_combout $end
$var wire 1 6! Mux4~2_combout $end
$var wire 1 7! Mux4~3_combout $end
$var wire 1 8! G[4]$latch~combout $end
$var wire 1 9! B[5]~input_o $end
$var wire 1 :! A[5]~input_o $end
$var wire 1 ;! Add1~9 $end
$var wire 1 <! Add1~10_combout $end
$var wire 1 =! Add0~31_combout $end
$var wire 1 >! Add3~9 $end
$var wire 1 ?! Add3~10_combout $end
$var wire 1 @! Add0~27_combout $end
$var wire 1 A! Add0~28_combout $end
$var wire 1 B! Add0~25 $end
$var wire 1 C! Add0~29_combout $end
$var wire 1 D! Mux5~1_combout $end
$var wire 1 E! Mux5~2_combout $end
$var wire 1 F! Mux5~0_combout $end
$var wire 1 G! Mux5~3_combout $end
$var wire 1 H! G[5]$latch~combout $end
$var wire 1 I! A[6]~input_o $end
$var wire 1 J! B[6]~input_o $end
$var wire 1 K! Add3~11 $end
$var wire 1 L! Add3~12_combout $end
$var wire 1 M! Add1~11 $end
$var wire 1 N! Add1~12_combout $end
$var wire 1 O! Add0~36_combout $end
$var wire 1 P! Mux6~1_combout $end
$var wire 1 Q! Add0~32_combout $end
$var wire 1 R! Add0~33_combout $end
$var wire 1 S! Add0~30 $end
$var wire 1 T! Add0~34_combout $end
$var wire 1 U! Mux6~2_combout $end
$var wire 1 V! Mux6~0_combout $end
$var wire 1 W! Mux6~3_combout $end
$var wire 1 X! G[6]$latch~combout $end
$var wire 1 Y! A[7]~input_o $end
$var wire 1 Z! B[7]~input_o $end
$var wire 1 [! Add3~13 $end
$var wire 1 \! Add3~14_combout $end
$var wire 1 ]! Add1~13 $end
$var wire 1 ^! Add1~14_combout $end
$var wire 1 _! Add0~37_combout $end
$var wire 1 `! Add0~38_combout $end
$var wire 1 a! Add0~35 $end
$var wire 1 b! Add0~39_combout $end
$var wire 1 c! Mux7~1_combout $end
$var wire 1 d! Mux7~2_combout $end
$var wire 1 e! Mux7~3_combout $end
$var wire 1 f! Mux7~0_combout $end
$var wire 1 g! Mux7~4_combout $end
$var wire 1 h! G[7]$latch~combout $end
$upscope $end
$upscope $end
$enddefinitions $end
#0
$dumpvars
b1 !
b0 "
0#
0$
0%
0&
1.
0-
0,
0+
0*
0)
0(
0'
0/
10
x1
12
13
14
15
06
07
08
09
0:
0;
0<
0=
0>
0?
0@
1A
0B
0C
0D
1E
1F
1G
0H
0I
0J
1K
1L
1M
1N
0O
0P
0Q
0R
1S
0T
0U
1V
0W
0X
0Y
0Z
0[
0\
1]
0^
0_
0`
0a
1b
0c
0d
0e
0f
0g
0h
0i
0j
0k
1l
0m
0n
0o
0p
0q
1r
1s
0t
0u
0v
0w
0x
0y
0z
0{
1|
0}
0~
0!!
0"!
1#!
0$!
0%!
0&!
0'!
0(!
0)!
0*!
0+!
0,!
0-!
1.!
0/!
00!
01!
02!
03!
14!
15!
06!
07!
08!
09!
0:!
0;!
0<!
0=!
1>!
0?!
0@!
0A!
0B!
1C!
0D!
0E!
0F!
0G!
0H!
0I!
0J!
0K!
0L!
1M!
0N!
0O!
0P!
0Q!
0R!
1S!
1T!
0U!
0V!
0W!
0X!
0Y!
0Z!
1[!
0\!
0]!
0^!
0_!
0`!
0a!
1b!
0c!
0d!
0e!
0f!
0g!
0h!
$end
#70000
1#
1?
1f!
0b!
1V!
0T!
1F!
0C!
05!
1+!
1&!
0#!
0s
1i
0b
1Y
1P
1O
1H
1@
1Q
0f!
0V!
0F!
0+!
0&!
0i
0Y
0P
1a
0M
1d!
0G
1b
0N
1c
0S
1d
0V
05
1e
0.
1f
16
1-
#150000
1$
0#
1=
0?
1I
0@
1b!
1T!
1C!
15!
1#!
1s
0r
0b
0Q
1P
1e!
0d!
0c
1G
1"!
0s
1Q
1g!
0e!
0d
1N
04!
0#!
0g!
0e
1S
1B!
05!
1h!
1<
0S!
0C!
1'
0h!
0f
1V
15
06
0<
1a!
0T!
0'
0-
1.
0b!
#230000
1#
1?
1b!
0a!
1T!
1S!
1C!
0B!
15!
14!
1#!
0"!
1s
1r
1b
0P
1@
0b!
1U!
0T!
1D!
0C!
16!
05!
1$!
0#!
1t
0s
1c
1d!
0G
1W!
0U!
1E!
0D!
17!
06!
1%!
0$!
1u
0t
1d
0N
0W!
1G!
0E!
07!
1'!
0%!
0u
1e
0S
1X!
18!
1v
17
19
1;
0G!
0'!
1(
1*
1,
0X!
1H!
08!
1(!
0v
1f
0V
05
16
07
18
09
1:
0;
0(
1)
0*
1+
0,
1-
0.
0H!
0(!
08
0:
0)
0+
#300000
1%
0$
0#
1>
0=
0?
0O
0I
1D
0@
0H
1b!
1T!
1C!
15!
1#!
1s
0r
0b
0Q
1P
1Q
0P
1e!
0d!
0d
0c
0a
1M
1"!
0s
0Q
1g!
0e!
0e
1r
1b
04!
0#!
0g!
0"!
1s
1B!
05!
1h!
0f
06
1<
14!
1#!
0S!
0C!
1'
0-
0h!
0<
0B!
15!
1a!
0T!
0'
1S!
1C!
0b!
0a!
1T!
1b!
#380000
1#
1?
1f!
0b!
1V!
0T!
1F!
0C!
05!
1+!
1&!
0#!
0s
1i
0b
1Y
1P
1O
1J
1H
0D
1@
1Q
0f!
0V!
0F!
0+!
0&!
0i
0Y
0P
0K
1a
0M
1d!
1N
1S
0L
1b
0N
0a
1M
1c
0S
1V
15
0b
1N
1d
1.
0V
05
0c
1S
1e
0.
0d
1V
1f
16
15
0e
1.
1-
0f
06
0-
#460000
1$
0#
1=
0?
1b!
1T!
1C!
15!
1#!
1s
1b
0Q
1P
0J
1e!
1U!
1D!
16!
1$!
1t
1c
1Q
1K
1g!
1W!
1E!
17!
1%!
1u
1d
1L
1G!
1'!
1e
1a
0M
1h!
1X!
18!
1v
17
19
1;
1<
0r
0b
0N
1'
1(
1*
1,
1H!
1(!
1f
16
18
1:
1"!
0s
0c
0S
1)
1+
1-
04!
0#!
0t
0d
0V
05
1B!
05!
0$!
0u
0e
0.
0S!
0C!
06!
0%!
0v
0f
06
07
1a!
0T!
0D!
07!
0'!
0,
0-
0b!
0U!
0E!
08!
0(!
08
09
0e!
0W!
0G!
0*
0+
0g!
0X!
0H!
0:
0;
0(
0)
0h!
0<
0'
#570000
1#
1?
1b!
0a!
1T!
1S!
1C!
0B!
15!
14!
1#!
0"!
1s
1r
1b
0P
0O
1J
1D
1e!
0b!
1U!
0T!
1D!
0C!
16!
05!
1$!
0#!
1t
0s
1c
0Q
1f!
1V!
1F!
1+!
1&!
1i
1Y
1P
0K
0d!
1P!
11!
1o
1G
1g!
0e!
1W!
0U!
17!
06!
1u
0t
0L
1N
0g!
0W!
07!
0u
0a
1M
1S
1h!
1X!
18!
1v
17
19
1;
1<
0b
1'
1(
1*
1,
0h!
0X!
08!
0v
1V
15
07
09
0;
0<
0'
0(
0*
0,
1.
#660000
1&
0%
0$
0#
1R
0>
0=
0?
1g!
1W!
1G!
17!
1'!
1u
1e
0S
0J
0D
0@
0H
0f!
1b!
0V!
1T!
0F!
1C!
15!
0+!
0&!
1#!
1s
0i
1b
0Y
1Q
0P
1K
0P!
1E!
0D!
01!
1%!
0$!
0o
1d
0c
1U!
16!
1t
0M
0g!
0W!
0G!
07!
0'!
0u
0e
1S
0Q
1h!
1X!
1H!
18!
1(!
1v
1f
0V
05
16
17
18
19
1:
1;
1<
1L
0U!
0E!
06!
0%!
0t
0d
0S
1'
1(
1)
1*
1+
1,
1-
0.
0h!
0X!
0H!
08!
0(!
0v
0f
1V
15
06
07
08
09
0:
0;
0<
1M
0'
0(
0)
0*
0+
0,
0-
1.
0V
05
0.
#740000
1#
1?
1f!
0b!
1V!
0T!
1F!
0C!
05!
1+!
1&!
0#!
0s
1i
0b
1Y
1P
1O
1H
1@
1g!
1W!
1G!
17!
1'!
1u
1e
1Q
0f!
0V!
0F!
0+!
0&!
0i
0Y
0P
1a
0M
1d!
0G
1S
0g!
0W!
0G!
07!
0'!
0u
0e
1b
0N
1h!
1X!
1H!
18!
1(!
1v
1f
16
17
18
19
1:
1;
1<
1c
1'
1(
1)
1*
1+
1,
1-
1V
0h!
0X!
0H!
08!
0(!
0v
0f
06
07
08
09
0:
0;
0<
15
1d
1.
0'
0(
0)
0*
0+
0,
0-
#830000
1%
1$
0#
1>
1=
0?
1b!
1T!
1C!
15!
1#!
1s
0r
0b
0Q
1P
1e!
1U!
1D!
16!
1$!
1t
1"!
0s
0c
0S
1Q
1E!
1%!
04!
0#!
0t
0d
1S
0V
05
1B!
05!
0$!
0.
1V
15
0S!
0C!
06!
0%!
1.
1a!
0T!
0D!
0b!
0U!
0E!
0e!
#900000
1#
1?
1b!
0a!
1T!
1S!
1C!
0B!
15!
14!
1#!
0"!
1s
1r
1b
0P
0O
1J
1D
1e!
0b!
1U!
0T!
1D!
0C!
16!
05!
1$!
0#!
1t
0s
1c
0Q
1f!
1V!
1F!
1+!
1&!
1i
1Y
1P
0K
0d!
1P!
11!
1o
1G
1g!
0e!
1W!
0U!
17!
06!
1u
0t
0S
1G!
1'!
1e
0L
1N
0a
1M
1h!
1X!
18!
1v
0V
1H!
1(!
1f
16
18
1:
05
17
19
1;
1<
0b
1'
1(
1*
1,
0.
1)
1+
1-
#980000
0&
0%
0$
0#
0R
0>
0=
0?
0g!
0W!
0G!
07!
0'!
0u
0e
1S
0J
0D
0@
0H
0f!
1b!
0V!
1T!
0F!
1C!
15!
0+!
0&!
1#!
1s
0i
1b
0Y
1Q
0P
1K
0P!
1E!
0D!
01!
1%!
0$!
0o
1d
0c
1U!
16!
1t
0M
0Q
0h!
0X!
0H!
08!
0(!
0v
0f
1V
15
06
07
08
09
0:
0;
0<
1L
0U!
1G!
0E!
06!
1'!
0%!
0t
1e
0d
1W!
17!
1u
0'
0(
0)
0*
0+
0,
0-
1.
1M
0W!
0G!
07!
0'!
0u
0e
1H!
1(!
1f
1X!
18!
1v
17
19
1;
16
18
1:
1)
1+
1-
1(
1*
1,
0X!
0H!
08!
0(!
0v
0f
06
07
08
09
0:
0;
0(
0)
0*
0+
0,
0-
