lab05/simulation/qsim/lab05.msim.vcd
$comment
	File created using the following command:
		vcd file lab05.msim.vcd -direction
$end
$date
	Fri Nov 08 17:18:44 2019
$end
$version
	ModelSim Version 10.5b
$end
$timescale
	1ps
$end

$scope module Block3_vlg_vec_tst $end
$var reg 1 ! clean $end
$var reg 1 " clk $end
$var wire 1 # a0 $end
$var wire 1 $ a1 $end
$var wire 1 % a2 $end
$var wire 1 & a3 $end
$var wire 1 ' a4 $end
$var wire 1 ( a5 $end
$var wire 1 ) a6 $end
$var wire 1 * b0 $end
$var wire 1 + b1 $end
$var wire 1 , b2 $end
$var wire 1 - b3 $end
$var wire 1 . b4 $end
$var wire 1 / b5 $end
$var wire 1 0 b6 $end
$var wire 1 1 c0 $end
$var wire 1 2 c1 $end
$var wire 1 3 c2 $end
$var wire 1 4 c3 $end
$var wire 1 5 c4 $end
$var wire 1 6 c5 $end
$var wire 1 7 c6 $end
$var wire 1 8 d0 $end
$var wire 1 9 d1 $end
$var wire 1 : d2 $end
$var wire 1 ; d3 $end
$var wire 1 < d4 $end
$var wire 1 = d5 $end
$var wire 1 > d6 $end

$scope module i1 $end
$var wire 1 ? gnd $end
$var wire 1 @ vcc $end
$var wire 1 A unknown $end
$var tri1 1 B devclrn $end
$var tri1 1 C devpor $end
$var tri1 1 D devoe $end
$var wire 1 E a0~output_o $end
$var wire 1 F a1~output_o $end
$var wire 1 G a2~output_o $end
$var wire 1 H a3~output_o $end
$var wire 1 I a4~output_o $end
$var wire 1 J a5~output_o $end
$var wire 1 K a6~output_o $end
$var wire 1 L b0~output_o $end
$var wire 1 M b1~output_o $end
$var wire 1 N b2~output_o $end
$var wire 1 O b3~output_o $end
$var wire 1 P b4~output_o $end
$var wire 1 Q b5~output_o $end
$var wire 1 R b6~output_o $end
$var wire 1 S c0~output_o $end
$var wire 1 T c1~output_o $end
$var wire 1 U c2~output_o $end
$var wire 1 V c3~output_o $end
$var wire 1 W c4~output_o $end
$var wire 1 X c5~output_o $end
$var wire 1 Y c6~output_o $end
$var wire 1 Z d0~output_o $end
$var wire 1 [ d1~output_o $end
$var wire 1 \ d2~output_o $end
$var wire 1 ] d3~output_o $end
$var wire 1 ^ d4~output_o $end
$var wire 1 _ d5~output_o $end
$var wire 1 ` d6~output_o $end
$var wire 1 a clk~input_o $end
$var wire 1 b clk~inputclkctrl_outclk $end
$var wire 1 c inst2|inst~0_combout $end
$var wire 1 d clean~input_o $end
$var wire 1 e inst2|inst~q $end
$var wire 1 f inst2|inst2~0_combout $end
$var wire 1 g inst2|inst2~q $end
$var wire 1 h inst2|inst20~combout $end
$var wire 1 i inst2|inst3~q $end
$var wire 1 j inst2|inst10~combout $end
$var wire 1 k inst2|inst1~q $end
$var wire 1 l inst|WideOr6~0_combout $end
$var wire 1 m inst|WideOr5~0_combout $end
$var wire 1 n inst|WideOr4~0_combout $end
$var wire 1 o inst|WideOr3~0_combout $end
$var wire 1 p inst|WideOr2~0_combout $end
$var wire 1 q inst|WideOr1~0_combout $end
$var wire 1 r inst|WideOr0~0_combout $end
$var wire 1 s inst70|inst~0_combout $end
$var wire 1 t inst2|inst22~0_combout $end
$var wire 1 u inst70|inst~q $end
$var wire 1 v inst70|inst2~0_combout $end
$var wire 1 w inst70|inst2~q $end
$var wire 1 x inst70|inst10~combout $end
$var wire 1 y inst70|inst1~q $end
$var wire 1 z inst1|WideOr6~0_combout $end
$var wire 1 { inst1|WideOr5~0_combout $end
$var wire 1 | inst1|Decoder0~0_combout $end
$var wire 1 } inst1|WideOr3~0_combout $end
$var wire 1 ~ inst1|WideOr2~0_combout $end
$var wire 1 !! inst1|WideOr1~0_combout $end
$var wire 1 "! inst1|WideOr0~0_combout $end
$var wire 1 #! inst74|inst~0_combout $end
$var wire 1 $! inst76~combout $end
$var wire 1 %! inst74|inst~q $end
$var wire 1 &! inst74|inst10~combout $end
$var wire 1 '! inst74|inst1~q $end
$var wire 1 (! inst74|inst2~0_combout $end
$var wire 1 )! inst74|inst2~q $end
$var wire 1 *! inst74|inst20~combout $end
$var wire 1 +! inst74|inst3~q $end
$var wire 1 ,! inst85|WideOr6~0_combout $end
$var wire 1 -! inst85|WideOr5~0_combout $end
$var wire 1 .! inst85|WideOr4~0_combout $end
$var wire 1 /! inst85|WideOr3~0_combout $end
$var wire 1 0! inst85|WideOr2~0_combout $end
$var wire 1 1! inst85|WideOr1~0_combout $end
$var wire 1 2! inst85|WideOr0~0_combout $end
$var wire 1 3! inst67|inst~0_combout $end
$var wire 1 4! inst76~2_combout $end
$var wire 1 5! inst77~0_combout $end
$var wire 1 6! inst77~combout $end
$var wire 1 7! inst67|inst~q $end
$var wire 1 8! inst67|inst10~combout $end
$var wire 1 9! inst67|inst1~q $end
$var wire 1 :! inst67|inst2~0_combout $end
$var wire 1 ;! inst67|inst2~q $end
$var wire 1 <! inst3|WideOr6~0_combout $end
$var wire 1 =! inst3|WideOr5~0_combout $end
$var wire 1 >! inst3|Decoder0~0_combout $end
$var wire 1 ?! inst3|WideOr3~0_combout $end
$var wire 1 @! inst3|WideOr2~0_combout $end
$var wire 1 A! inst3|WideOr1~0_combout $end
$var wire 1 B! inst3|WideOr0~0_combout $end
$upscope $end
$upscope $end
$enddefinitions $end
#0
$dumpvars
1!
0"
0#
0$
0%
0&
0'
0(
1)
0*
0+
0,
0-
0.
0/
10
01
02
03
04
05
06
17
08
09
0:
0;
0<
0=
1>
0?
1@
xA
1B
1C
1D
0E
0F
0G
0H
0I
0J
1K
0L
0M
0N
0O
0P
0Q
1R
0S
0T
0U
0V
0W
0X
1Y
0Z
0[
0\
0]
0^
0_
1`
0a
0b
1c
1d
0e
0f
0g
0h
0i
0j
0k
0l
0m
0n
0o
0p
0q
0r
1s
0t
0u
0v
0w
0x
0y
0z
0{
0|
0}
0~
0!!
1"!
1#!
0$!
0%!
0&!
0'!
0(!
0)!
0*!
0+!
0,!
0-!
0.!
0/!
00!
01!
02!
13!
04!
05!
06!
07!
08!
09!
0:!
0;!
0<!
0=!
0>!
0?!
0@!
0A!
1B!
$end
#5000
1"
1a
1b
1e
1q
1p
1o
1l
1j
0c
1E
1H
1I
1J
1(
1'
1&
1#
#10000
0"
0a
0b
#15000
1"
1a
1b
1k
0e
1r
0p
0o
1n
0l
1c
0E
1G
0H
0I
0K
0)
0'
0&
1%
0#
#20000
0"
0a
0b
#25000
1"
1a
1b
1e
1p
0n
0j
1f
0c
0G
1I
1'
0%
#30000
0"
0a
0b
#35000
1"
1a
1b
0k
1g
0e
0q
1o
1l
1c
1E
1H
0J
0(
1&
1#
#40000
0"
0a
0b
#45000
1"
1a
1b
1e
0o
1m
0l
1j
0c
0E
1F
0H
0&
1$
0#
#50000
0"
0a
0b
#55000
1"
1a
1b
1k
0e
0p
1c
0I
0'
#60000
0"
0a
0b
#65000
1"
1a
1b
1e
0r
1q
1p
1o
0m
0j
1h
0f
0c
0F
1H
1I
1J
1K
1)
1(
1'
1&
0$
#70000
0"
0a
0b
#75000
1"
1a
1b
0k
1i
0g
0e
1r
0q
0p
0o
1c
0H
0I
0J
0K
0)
0(
0'
0&
#80000
0"
0a
0b
#85000
1"
1a
1b
1e
1t
1p
0h
0c
1I
1'
#90000
0"
0a
0b
#95000
1"
1a
1b
1u
0i
0e
0t
0r
1!!
1~
1}
1z
1x
0s
0p
1c
0I
1L
1O
1P
1Q
1K
1)
1/
1.
1-
1*
0'
#100000
0"
0a
0b
#105000
1"
1a
1b
1e
1q
1p
1o
1l
1j
0c
1E
1H
1I
1J
1(
1'
1&
1#
#110000
0"
0a
0b
#115000
1"
1a
1b
1k
0e
1r
0p
0o
1n
0l
1c
0E
1G
0H
0I
0K
0)
0'
0&
1%
0#
#120000
0"
0a
0b
#125000
1"
1a
1b
1e
1p
0n
0j
1f
0c
0G
1I
1'
0%
#130000
0"
0a
0b
#135000
1"
1a
1b
0k
1g
0e
0q
1o
1l
1c
1E
1H
0J
0(
1&
1#
#140000
0"
0a
0b
#145000
1"
1a
1b
1e
0o
1m
0l
1j
0c
0E
1F
0H
0&
1$
0#
#150000
0"
0a
0b
#155000
1"
1a
1b
1k
0e
0p
1c
0I
0'
#160000
0"
0a
0b
#165000
1"
1a
1b
1e
0r
1q
1p
1o
0m
0j
1h
0f
0c
0F
1H
1I
1J
1K
1)
1(
1'
1&
0$
#170000
0"
0a
0b
#175000
1"
1a
1b
0k
1i
0g
0e
1r
0q
0p
0o
1c
0H
0I
0J
0K
0)
0(
0'
0&
#180000
0"
0a
0b
#185000
1"
1a
1b
1e
1t
1p
0h
0c
1I
1'
#190000
0"
0a
0b
#195000
1"
1a
1b
1y
0u
0i
0e
0t
0r
0"!
0~
0}
1|
0z
1s
0p
1c
0I
0L
1N
0O
0P
0R
1K
1)
00
0.
0-
1,
0*
0'
#200000
0"
0a
0b
#205000
1"
1a
1b
1e
1q
1p
1o
1l
1j
0c
1E
1H
1I
1J
1(
1'
1&
1#
#210000
0"
0a
0b
#215000
1"
1a
1b
1k
0e
1r
0p
0o
1n
0l
1c
0E
1G
0H
0I
0K
0)
0'
0&
1%
0#
#220000
0"
0a
0b
#225000
1"
1a
1b
1e
1p
0n
0j
1f
0c
0G
1I
1'
0%
#230000
0"
0a
0b
#235000
1"
1a
1b
0k
1g
0e
0q
1o
1l
1c
1E
1H
0J
0(
1&
1#
#240000
0"
0a
0b
#245000
1"
1a
1b
1e
0o
1m
0l
1j
0c
0E
1F
0H
0&
1$
0#
#250000
0"
0a
0b
#255000
1"
1a
1b
1k
0e
0p
1c
0I
0'
#260000
0"
0a
0b
#265000
1"
1a
1b
1e
0r
1q
1p
1o
0m
0j
1h
0f
0c
0F
1H
1I
1J
1K
1)
1(
1'
1&
0$
#270000
0"
0a
0b
#275000
1"
1a
1b
0k
1i
0g
0e
1r
0q
0p
0o
1c
0H
0I
0J
0K
0)
0(
0'
0&
#280000
0"
0a
0b
#285000
1"
1a
1b
1e
1t
1p
0h
0c
1I
1'
#290000
0"
0a
0b
#295000
1"
1a
1b
1u
0i
0e
0t
0r
1~
0|
0x
1v
0s
0p
1c
0I
0N
1P
1K
1)
1.
0,
0'
0v
#300000
0"
0a
0b
#305000
1"
1a
1b
1e
1q
1p
1o
1l
1j
0c
1E
1H
1I
1J
1(
1'
1&
1#
#310000
0"
0a
0b
#315000
1"
1a
1b
1k
0e
1r
0p
0o
1n
0l
1c
0E
1G
0H
0I
0K
0)
0'
0&
1%
0#
#320000
0"
0a
0b
#325000
1"
1a
1b
1e
1p
0n
0j
1f
0c
0G
1I
1'
0%
#330000
0"
0a
0b
#335000
1"
1a
1b
0k
1g
0e
0q
1o
1l
1c
1E
1H
0J
0(
1&
1#
#340000
0"
0a
0b
#345000
1"
1a
1b
1e
0o
1m
0l
1j
0c
0E
1F
0H
0&
1$
0#
#350000
0"
0a
0b
#355000
1"
1a
1b
1k
0e
0p
1c
0I
0'
#360000
0"
0a
0b
#365000
1"
1a
1b
1e
0r
1q
1p
1o
0m
0j
1h
0f
0c
0F
1H
1I
1J
1K
1)
1(
1'
1&
0$
#370000
0"
0a
0b
#375000
1"
1a
1b
0k
1i
0g
0e
1r
0q
0p
0o
1c
0H
0I
0J
0K
0)
0(
0'
0&
#380000
0"
0a
0b
#385000
1"
1a
1b
1e
1t
1p
0h
0c
1I
1'
1v
#390000
0"
0a
0b
#395000
1"
1a
1b
0y
1w
0u
0i
0e
14!
0t
0r
0!!
1}
1z
1s
0p
1c
0I
1L
1O
0Q
1K
1)
0/
1-
1*
0'
#400000
0"
0a
0b
#405000
1"
1a
1b
1e
1q
1p
1o
1l
1j
0c
1E
1H
1I
1J
1(
1'
1&
1#
#410000
0"
0a
0b
#415000
1"
1a
1b
1k
0e
1r
0p
0o
1n
0l
1c
0E
1G
0H
0I
0K
0)
0'
0&
1%
0#
#420000
0"
0a
0b
#425000
1"
1a
1b
1e
1p
0n
0j
1f
0c
0G
1I
1'
0%
#430000
0"
0a
0b
#435000
1"
1a
1b
0k
1g
0e
0q
1o
1l
1c
1E
1H
0J
0(
1&
1#
#440000
0"
0a
0b
#445000
1"
1a
1b
1e
0o
1m
0l
1j
0c
0E
1F
0H
0&
1$
0#
#450000
0"
0a
0b
#455000
1"
1a
1b
1k
0e
0p
1c
0I
0'
#460000
0"
0a
0b
#465000
1"
1a
1b
1e
0r
1q
1p
1o
0m
0j
1h
0f
0c
0F
1H
1I
1J
1K
1)
1(
1'
1&
0$
#470000
0"
0a
0b
#475000
1"
1a
1b
0k
1i
0g
0e
1r
0q
0p
0o
1c
0H
0I
0J
0K
0)
0(
0'
0&
#480000
0"
0a
0b
#485000
1"
1a
1b
1e
1t
1p
0h
0c
1I
1'
#490000
0"
0a
0b
#495000
1"
1a
1b
1u
0i
0e
1$!
0t
0r
0}
1{
0z
0v
0s
0p
1c
0I
0L
1M
0O
1K
0$!
1)
0-
1+
0*
0'
1v
#500000
0"
0a
0b
#505000
1"
1a
1b
1e
1q
1p
1o
1l
1j
0c
1E
1H
1I
1J
1(
1'
1&
1#
#510000
0"
0a
0b
#515000
1"
1a
1b
1k
0e
1r
0p
0o
1n
0l
1c
0E
1G
0H
0I
0K
0)
0'
0&
1%
0#
#520000
0"
0a
0b
#525000
1"
1a
1b
1e
1p
0n
0j
1f
0c
0G
1I
1'
0%
#530000
0"
0a
0b
#535000
1"
1a
1b
0k
1g
0e
0q
1o
1l
1c
1E
1H
0J
0(
1&
1#
#540000
0"
0a
0b
#545000
1"
1a
1b
1e
0o
1m
0l
1j
0c
0E
1F
0H
0&
1$
0#
#550000
0"
0a
0b
#555000
1"
1a
1b
1k
0e
0p
1c
0I
0'
#560000
0"
0a
0b
#565000
1"
1a
1b
1e
0r
1q
1p
1o
0m
0j
1h
0f
0c
0F
1H
1I
1J
1K
1)
1(
1'
1&
0$
#570000
0"
0a
0b
#575000
1"
1a
1b
0k
1i
0g
0e
1r
0q
0p
0o
1c
0H
0I
0J
0K
0)
0(
0'
0&
#580000
0"
0a
0b
#585000
1"
1a
1b
1e
1t
1p
0h
0c
1I
1$!
1'
0v
#590000
0"
0a
0b
#595000
1"
1a
1b
1%!
0w
0u
0i
0e
04!
0$!
0t
0r
11!
10!
1/!
1,!
1&!
0#!
1"!
0~
0{
1s
0p
1c
0I
0M
0P
1R
1S
1V
1W
1X
1K
1)
16
15
14
11
10
0.
0+
0'
#600000
0"
0a
0b
#605000
1"
1a
1b
1e
1q
1p
1o
1l
1j
0c
1E
1H
1I
1J
1(
1'
1&
1#
#610000
0"
0a
0b
#615000
1"
1a
1b
1k
0e
1r
0p
0o
1n
0l
1c
0E
1G
0H
0I
0K
0)
0'
0&
1%
0#
#620000
0"
0a
0b
#625000
1"
1a
1b
1e
1p
0n
0j
1f
0c
0G
1I
1'
0%
#630000
0"
0a
0b
#635000
1"
1a
1b
0k
1g
0e
0q
1o
1l
1c
1E
1H
0J
0(
1&
1#
#640000
0"
0a
0b
#645000
1"
1a
1b
1e
0o
1m
0l
1j
0c
0E
1F
0H
0&
1$
0#
#650000
0"
0a
0b
#655000
1"
1a
1b
1k
0e
0p
1c
0I
0'
#660000
0"
0a
0b
#665000
1"
1a
1b
1e
0r
1q
1p
1o
0m
0j
1h
0f
0c
0F
1H
1I
1J
1K
1)
1(
1'
1&
0$
#670000
0"
0a
0b
#675000
1"
1a
1b
0k
1i
0g
0e
1r
0q
0p
0o
1c
0H
0I
0J
0K
0)
0(
0'
0&
#680000
0"
0a
0b
#685000
1"
1a
1b
1e
1t
1p
0h
0c
1I
1'
#690000
0"
0a
0b
#695000
1"
1a
1b
1u
0i
0e
0t
0r
1!!
1~
1}
1z
1x
0s
0p
1c
0I
1L
1O
1P
1Q
1K
1)
1/
1.
1-
1*
0'
#700000
0"
0a
0b
#705000
1"
1a
1b
1e
1q
1p
1o
1l
1j
0c
1E
1H
1I
1J
1(
1'
1&
1#
#710000
0"
0a
0b
#715000
1"
1a
1b
1k
0e
1r
0p
0o
1n
0l
1c
0E
1G
0H
0I
0K
0)
0'
0&
1%
0#
#720000
0"
0a
0b
#725000
1"
1a
1b
1e
1p
0n
0j
1f
0c
0G
1I
1'
0%
#730000
0"
0a
0b
#735000
1"
1a
1b
0k
1g
0e
0q
1o
1l
1c
1E
1H
0J
0(
1&
1#
#740000
0"
0a
0b
#745000
1"
1a
1b
1e
0o
1m
0l
1j
0c
0E
1F
0H
0&
1$
0#
#750000
0"
0a
0b
#755000
1"
1a
1b
1k
0e
0p
1c
0I
0'
#760000
0"
0a
0b
#765000
1"
1a
1b
1e
0r
1q
1p
1o
0m
0j
1h
0f
0c
0F
1H
1I
1J
1K
1)
1(
1'
1&
0$
#770000
0"
0a
0b
#775000
1"
1a
1b
0k
1i
0g
0e
1r
0q
0p
0o
1c
0H
0I
0J
0K
0)
0(
0'
0&
#780000
0"
0a
0b
#785000
1"
1a
1b
1e
1t
1p
0h
0c
1I
1'
#790000
0"
0a
0b
#795000
1"
1a
1b
1y
0u
0i
0e
0t
0r
0"!
0~
0}
1|
0z
1s
0p
1c
0I
0L
1N
0O
0P
0R
1K
1)
00
0.
0-
1,
0*
0'
#800000
0"
0a
0b
#805000
1"
1a
1b
1e
1q
1p
1o
1l
1j
0c
1E
1H
1I
1J
1(
1'
1&
1#
#810000
0"
0a
0b
#815000
1"
1a
1b
1k
0e
1r
0p
0o
1n
0l
1c
0E
1G
0H
0I
0K
0)
0'
0&
1%
0#
#820000
0"
0a
0b
#825000
1"
1a
1b
1e
1p
0n
0j
1f
0c
0G
1I
1'
0%
#830000
0"
0a
0b
#835000
1"
1a
1b
0k
1g
0e
0q
1o
1l
1c
1E
1H
0J
0(
1&
1#
#840000
0"
0a
0b
#845000
1"
1a
1b
1e
0o
1m
0l
1j
0c
0E
1F
0H
0&
1$
0#
#850000
0"
0a
0b
#855000
1"
1a
1b
1k
0e
0p
1c
0I
0'
#860000
0"
0a
0b
#865000
1"
1a
1b
1e
0r
1q
1p
1o
0m
0j
1h
0f
0c
0F
1H
1I
1J
1K
1)
1(
1'
1&
0$
#870000
0"
0a
0b
#875000
1"
1a
1b
0k
1i
0g
0e
1r
0q
0p
0o
1c
0H
0I
0J
0K
0)
0(
0'
0&
#880000
0"
0a
0b
#885000
1"
1a
1b
1e
1t
1p
0h
0c
1I
1'
#890000
0"
0a
0b
#895000
1"
1a
1b
1u
0i
0e
0t
0r
1~
0|
0x
1v
0s
0p
1c
0I
0N
1P
1K
1)
1.
0,
0'
0v
#900000
0"
0a
0b
#905000
1"
1a
1b
1e
1q
1p
1o
1l
1j
0c
1E
1H
1I
1J
1(
1'
1&
1#
#910000
0"
0a
0b
#915000
1"
1a
1b
1k
0e
1r
0p
0o
1n
0l
1c
0E
1G
0H
0I
0K
0)
0'
0&
1%
0#
#920000
0"
0a
0b
#925000
1"
1a
1b
1e
1p
0n
0j
1f
0c
0G
1I
1'
0%
#930000
0"
0a
0b
#935000
1"
1a
1b
0k
1g
0e
0q
1o
1l
1c
1E
1H
0J
0(
1&
1#
#940000
0"
0a
0b
#945000
1"
1a
1b
1e
0o
1m
0l
1j
0c
0E
1F
0H
0&
1$
0#
#950000
0"
0a
0b
#955000
1"
1a
1b
1k
0e
0p
1c
0I
0'
#960000
0"
0a
0b
#965000
1"
1a
1b
1e
0r
1q
1p
1o
0m
0j
1h
0f
0c
0F
1H
1I
1J
1K
1)
1(
1'
1&
0$
#970000
0"
0a
0b
#975000
1"
1a
1b
0k
1i
0g
0e
1r
0q
0p
0o
1c
0H
0I
0J
0K
0)
0(
0'
0&
#980000
0"
0a
0b
#985000
1"
1a
1b
1e
1t
1p
0h
0c
1I
1'
1v
#990000
0"
0a
0b
#995000
1"
1a
1b
0y
1w
0u
0i
0e
14!
0t
0r
0!!
1}
1z
1s
0p
1c
0I
1L
1O
0Q
1K
1)
0/
1-
1*
0'
