midterm/simulation/qsim/midterm.msim.vcd
$comment
	File created using the following command:
		vcd file midterm.msim.vcd -direction
$end
$date
	Fri Nov 22 15:27:04 2019
$end
$version
	ModelSim Version 10.5b
$end
$timescale
	1ps
$end

$scope module midterm_vlg_vec_tst $end
$var reg 1 ! clean $end
$var reg 1 " clk $end
$var wire 1 # a0 $end
$var wire 1 $ a1 $end
$var wire 1 % a2 $end
$var wire 1 & a3 $end
$var wire 1 ' a4 $end
$var wire 1 ( a5 $end
$var wire 1 ) a6 $end
$var wire 1 * b0 $end
$var wire 1 + b1 $end
$var wire 1 , b2 $end
$var wire 1 - b3 $end
$var wire 1 . b4 $end
$var wire 1 / b5 $end
$var wire 1 0 b6 $end
$var wire 1 1 c0 $end
$var wire 1 2 c1 $end
$var wire 1 3 c2 $end
$var wire 1 4 c3 $end
$var wire 1 5 c4 $end
$var wire 1 6 c5 $end
$var wire 1 7 c6 $end
$var wire 1 8 d0 $end
$var wire 1 9 d1 $end
$var wire 1 : d2 $end
$var wire 1 ; d3 $end
$var wire 1 < d4 $end
$var wire 1 = d5 $end
$var wire 1 > d6 $end

$scope module i1 $end
$var wire 1 ? gnd $end
$var wire 1 @ vcc $end
$var wire 1 A unknown $end
$var tri1 1 B devclrn $end
$var tri1 1 C devpor $end
$var tri1 1 D devoe $end
$var wire 1 E a0~output_o $end
$var wire 1 F a1~output_o $end
$var wire 1 G a2~output_o $end
$var wire 1 H a3~output_o $end
$var wire 1 I a4~output_o $end
$var wire 1 J a5~output_o $end
$var wire 1 K a6~output_o $end
$var wire 1 L b0~output_o $end
$var wire 1 M b1~output_o $end
$var wire 1 N b2~output_o $end
$var wire 1 O b3~output_o $end
$var wire 1 P b4~output_o $end
$var wire 1 Q b5~output_o $end
$var wire 1 R b6~output_o $end
$var wire 1 S c0~output_o $end
$var wire 1 T c1~output_o $end
$var wire 1 U c2~output_o $end
$var wire 1 V c3~output_o $end
$var wire 1 W c4~output_o $end
$var wire 1 X c5~output_o $end
$var wire 1 Y c6~output_o $end
$var wire 1 Z d0~output_o $end
$var wire 1 [ d1~output_o $end
$var wire 1 \ d2~output_o $end
$var wire 1 ] d3~output_o $end
$var wire 1 ^ d4~output_o $end
$var wire 1 _ d5~output_o $end
$var wire 1 ` d6~output_o $end
$var wire 1 a clk~input_o $end
$var wire 1 b clk~inputclkctrl_outclk $end
$var wire 1 c inst4|Add0~0_combout $end
$var wire 1 d inst4|Add0~1 $end
$var wire 1 e inst4|Add0~2_combout $end
$var wire 1 f inst4|Add0~3 $end
$var wire 1 g inst4|Add0~4_combout $end
$var wire 1 h inst4|Add0~5 $end
$var wire 1 i inst4|Add0~6_combout $end
$var wire 1 j inst4|Add0~7 $end
$var wire 1 k inst4|Add0~8_combout $end
$var wire 1 l inst4|counter~1_combout $end
$var wire 1 m inst4|Add0~9 $end
$var wire 1 n inst4|Add0~10_combout $end
$var wire 1 o inst4|Add0~11 $end
$var wire 1 p inst4|Add0~12_combout $end
$var wire 1 q inst4|counter~2_combout $end
$var wire 1 r inst4|Add0~13 $end
$var wire 1 s inst4|Add0~14_combout $end
$var wire 1 t inst4|Add0~15 $end
$var wire 1 u inst4|Add0~16_combout $end
$var wire 1 v inst4|counter~3_combout $end
$var wire 1 w inst4|Add0~17 $end
$var wire 1 x inst4|Add0~18_combout $end
$var wire 1 y inst4|counter~0_combout $end
$var wire 1 z inst4|Add0~19 $end
$var wire 1 { inst4|Add0~20_combout $end
$var wire 1 | inst4|Add0~21 $end
$var wire 1 } inst4|Add0~22_combout $end
$var wire 1 ~ inst4|Add0~23 $end
$var wire 1 !! inst4|Add0~24_combout $end
$var wire 1 "! inst4|Equal0~4_combout $end
$var wire 1 #! inst4|Equal0~5_combout $end
$var wire 1 $! inst4|Add0~25 $end
$var wire 1 %! inst4|Add0~26_combout $end
$var wire 1 &! inst4|Add0~27 $end
$var wire 1 '! inst4|Add0~28_combout $end
$var wire 1 (! inst4|counter~4_combout $end
$var wire 1 )! inst4|Add0~29 $end
$var wire 1 *! inst4|Add0~31 $end
$var wire 1 +! inst4|Add0~32_combout $end
$var wire 1 ,! inst4|Add0~33 $end
$var wire 1 -! inst4|Add0~34_combout $end
$var wire 1 .! inst4|Add0~35 $end
$var wire 1 /! inst4|Add0~36_combout $end
$var wire 1 0! inst4|Add0~37 $end
$var wire 1 1! inst4|Add0~38_combout $end
$var wire 1 2! inst4|Add0~39 $end
$var wire 1 3! inst4|Add0~40_combout $end
$var wire 1 4! inst4|Add0~41 $end
$var wire 1 5! inst4|Add0~42_combout $end
$var wire 1 6! inst4|Add0~43 $end
$var wire 1 7! inst4|Add0~44_combout $end
$var wire 1 8! inst4|Add0~45 $end
$var wire 1 9! inst4|Add0~46_combout $end
$var wire 1 :! inst4|Add0~47 $end
$var wire 1 ;! inst4|Add0~48_combout $end
$var wire 1 <! inst4|Add0~49 $end
$var wire 1 =! inst4|Add0~50_combout $end
$var wire 1 >! inst4|Add0~51 $end
$var wire 1 ?! inst4|Add0~52_combout $end
$var wire 1 @! inst4|Add0~53 $end
$var wire 1 A! inst4|Add0~54_combout $end
$var wire 1 B! inst4|Equal0~2_combout $end
$var wire 1 C! inst4|Equal0~0_combout $end
$var wire 1 D! inst4|Equal0~1_combout $end
$var wire 1 E! inst4|Equal0~3_combout $end
$var wire 1 F! inst4|Equal0~7_combout $end
$var wire 1 G! inst4|Equal0~6_combout $end
$var wire 1 H! inst4|Equal0~8_combout $end
$var wire 1 I! inst4|Equal0~9_combout $end
$var wire 1 J! inst4|Add0~30_combout $end
$var wire 1 K! inst4|counter~5_combout $end
$var wire 1 L! inst4|LessThan0~3_combout $end
$var wire 1 M! inst4|LessThan0~0_combout $end
$var wire 1 N! inst4|LessThan0~1_combout $end
$var wire 1 O! inst4|LessThan0~2_combout $end
$var wire 1 P! inst4|LessThan0~4_combout $end
$var wire 1 Q! inst4|clk_out~q $end
$var wire 1 R! inst4|clk_out~clkctrl_outclk $end
$var wire 1 S! inst2|inst~0_combout $end
$var wire 1 T! clean~input_o $end
$var wire 1 U! inst2|inst~q $end
$var wire 1 V! inst2|inst12~combout $end
$var wire 1 W! inst2|inst1~q $end
$var wire 1 X! inst2|inst33~combout $end
$var wire 1 Y! inst2|inst40~combout $end
$var wire 1 Z! inst2|inst32~q $end
$var wire 1 [! inst2|inst50~0_combout $end
$var wire 1 \! inst2|inst42~combout $end
$var wire 1 ]! inst2|inst34~q $end
$var wire 1 ^! inst2|inst47~combout $end
$var wire 1 _! inst2|inst44~combout $end
$var wire 1 `! inst2|inst35~q $end
$var wire 1 a! inst2|inst50~combout $end
$var wire 1 b! inst2|inst54~combout $end
$var wire 1 c! inst2|inst51~q $end
$var wire 1 d! inst2|inst60~combout $end
$var wire 1 e! inst2|inst57~q $end
$var wire 1 f! inst2|inst28|inst23~0_combout $end
$var wire 1 g! inst2|inst20~combout $end
$var wire 1 h! inst2|inst14~combout $end
$var wire 1 i! inst2|inst2~q $end
$var wire 1 j! inst2|inst16~combout $end
$var wire 1 k! inst2|inst3~q $end
$var wire 1 l! inst2|inst25~combout $end
$var wire 1 m! inst2|inst30~combout $end
$var wire 1 n! inst2|inst8~q $end
$var wire 1 o! inst2|inst28|inst23~1_combout $end
$var wire 1 p! inst2|inst28|inst23~2_combout $end
$var wire 1 q! inst11|inst4~combout $end
$var wire 1 r! inst11|inst14~q $end
$var wire 1 s! inst11|inst12~combout $end
$var wire 1 t! inst11|inst32~q $end
$var wire 1 u! inst11|inst25~combout $end
$var wire 1 v! inst11|inst7~combout $end
$var wire 1 w! inst11|inst3~q $end
$var wire 1 x! inst11|inst~0_combout $end
$var wire 1 y! inst11|inst15~combout $end
$var wire 1 z! inst11|inst2~q $end
$var wire 1 {! inst|WideOr6~0_combout $end
$var wire 1 |! inst|WideOr5~0_combout $end
$var wire 1 }! inst|WideOr4~0_combout $end
$var wire 1 ~! inst|WideOr3~0_combout $end
$var wire 1 !" inst|WideOr2~0_combout $end
$var wire 1 "" inst|WideOr1~0_combout $end
$var wire 1 #" inst|WideOr0~0_combout $end
$var wire 1 $" inst14|inst20~combout $end
$var wire 1 %" inst14|inst12~combout $end
$var wire 1 &" inst14|inst32~q $end
$var wire 1 '" inst14|inst6~combout $end
$var wire 1 (" inst14|inst2~q $end
$var wire 1 )" inst14|inst~combout $end
$var wire 1 *" inst14|inst4~combout $end
$var wire 1 +" inst14|inst14~q $end
$var wire 1 ," inst1|WideOr6~0_combout $end
$var wire 1 -" inst1|WideOr5~0_combout $end
$var wire 1 ." inst1|WideOr4~0_combout $end
$var wire 1 /" inst1|WideOr3~0_combout $end
$var wire 1 0" inst1|WideOr2~0_combout $end
$var wire 1 1" inst1|WideOr1~0_combout $end
$var wire 1 2" inst1|WideOr0~0_combout $end
$var wire 1 3" inst12|inst19~0_combout $end
$var wire 1 4" inst12|inst4~combout $end
$var wire 1 5" inst12|inst14~q $end
$var wire 1 6" inst12|inst12~combout $end
$var wire 1 7" inst12|inst32~q $end
$var wire 1 8" inst12|inst25~combout $end
$var wire 1 9" inst12|inst15~combout $end
$var wire 1 :" inst12|inst2~q $end
$var wire 1 ;" inst12|inst~0_combout $end
$var wire 1 <" inst12|inst7~combout $end
$var wire 1 =" inst12|inst3~q $end
$var wire 1 >" inst85|WideOr6~0_combout $end
$var wire 1 ?" inst85|WideOr5~0_combout $end
$var wire 1 @" inst85|WideOr4~0_combout $end
$var wire 1 A" inst85|WideOr3~0_combout $end
$var wire 1 B" inst85|WideOr2~0_combout $end
$var wire 1 C" inst85|WideOr1~0_combout $end
$var wire 1 D" inst85|WideOr0~0_combout $end
$var wire 1 E" inst15|inst19~0_combout $end
$var wire 1 F" inst15|inst19~1_combout $end
$var wire 1 G" inst15|inst4~combout $end
$var wire 1 H" inst15|inst14~q $end
$var wire 1 I" inst15|inst12~combout $end
$var wire 1 J" inst15|inst32~q $end
$var wire 1 K" inst15|inst6~combout $end
$var wire 1 L" inst15|inst2~q $end
$var wire 1 M" inst3|WideOr6~0_combout $end
$var wire 1 N" inst3|WideOr5~0_combout $end
$var wire 1 O" inst3|WideOr4~0_combout $end
$var wire 1 P" inst3|WideOr3~0_combout $end
$var wire 1 Q" inst3|WideOr2~0_combout $end
$var wire 1 R" inst3|WideOr1~0_combout $end
$var wire 1 S" inst3|WideOr0~0_combout $end
$var wire 1 T" inst4|counter [27] $end
$var wire 1 U" inst4|counter [26] $end
$var wire 1 V" inst4|counter [25] $end
$var wire 1 W" inst4|counter [24] $end
$var wire 1 X" inst4|counter [23] $end
$var wire 1 Y" inst4|counter [22] $end
$var wire 1 Z" inst4|counter [21] $end
$var wire 1 [" inst4|counter [20] $end
$var wire 1 \" inst4|counter [19] $end
$var wire 1 ]" inst4|counter [18] $end
$var wire 1 ^" inst4|counter [17] $end
$var wire 1 _" inst4|counter [16] $end
$var wire 1 `" inst4|counter [15] $end
$var wire 1 a" inst4|counter [14] $end
$var wire 1 b" inst4|counter [13] $end
$var wire 1 c" inst4|counter [12] $end
$var wire 1 d" inst4|counter [11] $end
$var wire 1 e" inst4|counter [10] $end
$var wire 1 f" inst4|counter [9] $end
$var wire 1 g" inst4|counter [8] $end
$var wire 1 h" inst4|counter [7] $end
$var wire 1 i" inst4|counter [6] $end
$var wire 1 j" inst4|counter [5] $end
$var wire 1 k" inst4|counter [4] $end
$var wire 1 l" inst4|counter [3] $end
$var wire 1 m" inst4|counter [2] $end
$var wire 1 n" inst4|counter [1] $end
$var wire 1 o" inst4|counter [0] $end
$upscope $end
$upscope $end
$enddefinitions $end
#0
$dumpvars
1!
0"
0#
0$
0%
0&
0'
0(
1)
0*
0+
0,
0-
0.
0/
10
01
02
03
04
05
06
17
08
09
0:
0;
0<
0=
1>
0?
1@
xA
1B
1C
1D
0E
0F
0G
0H
0I
0J
1K
0L
0M
0N
0O
0P
0Q
1R
0S
0T
0U
0V
0W
0X
1Y
0Z
0[
0\
0]
0^
0_
1`
0a
0b
1c
0d
0e
1f
0g
0h
0i
1j
0k
0l
0m
0n
1o
0p
0q
0r
0s
1t
0u
0v
0w
0x
0y
1z
0{
0|
0}
1~
0!!
0"!
0#!
0$!
0%!
1&!
0'!
0(!
0)!
1*!
0+!
0,!
0-!
1.!
0/!
00!
01!
12!
03!
04!
05!
16!
07!
08!
09!
1:!
0;!
0<!
0=!
1>!
0?!
0@!
0A!
1B!
1C!
1D!
1E!
0F!
0G!
0H!
0I!
0J!
0K!
1L!
1M!
1N!
1O!
1P!
0Q!
0R!
1S!
1T!
0U!
0V!
0W!
0X!
0Y!
0Z!
0[!
0\!
0]!
0^!
0_!
0`!
0a!
0b!
0c!
0d!
0e!
1f!
0g!
0h!
0i!
0j!
0k!
0l!
0m!
0n!
1o!
1p!
1q!
0r!
0s!
0t!
0u!
1v!
0w!
0x!
0y!
0z!
0{!
0|!
0}!
0~!
0!"
0""
0#"
0$"
0%"
0&"
1'"
0("
0)"
1*"
0+"
0,"
0-"
0."
0/"
00"
01"
12"
03"
14"
05"
06"
07"
08"
09"
0:"
0;"
1<"
0="
0>"
0?"
0@"
0A"
0B"
0C"
0D"
0E"
0F"
1G"
0H"
0I"
0J"
1K"
0L"
0M"
0N"
0O"
0P"
0Q"
0R"
1S"
0o"
0n"
0m"
0l"
0k"
0j"
0i"
0h"
0g"
0f"
0e"
0d"
0c"
0b"
0a"
0`"
0_"
0^"
0]"
0\"
0["
0Z"
0Y"
0X"
0W"
0V"
0U"
0T"
$end
#9
1"
1a
1b
1Q!
1o"
1R!
1d
0c
1e
1L"
1H"
1="
15"
1+"
1("
1w!
1r!
1U!
1E"
1D"
1;"
1)"
1#"
1x!
0S!
0S"
1Q"
1N"
1B"
02"
10"
1-"
1!"
1V!
1I
1M
1P
0R
1W
1[
1^
0`
0K
0Y
0E"
07
0)
0>
1<
19
15
00
1.
1+
1'
#900
0"
0a
0b
#909
1"
1a
1b
1n"
0o"
0f
0d
0e
1c
1f
1g
1e
0g
#1800
0"
0a
0b
#1809
1"
1a
1b
1o"
1d
0c
0f
0e
1g
#2700
0"
0a
0b
#2709
1"
1a
1b
1m"
0n"
0o"
1h
1f
0d
0g
1e
1c
0h
1i
1g
0e
0i
#3600
0"
0a
0b
#3609
1"
1a
1b
1o"
1d
0c
1e
#4500
0"
0a
0b
#4509
1"
1a
1b
1n"
0o"
0f
0d
0e
1c
1h
1f
0g
1e
0h
1i
1g
0i
#5400
0"
0a
0b
#5409
1"
1a
1b
1o"
1d
0c
0f
0e
1h
0g
1i
#6300
0"
0a
0b
#6309
1"
1a
1b
1l"
0m"
0n"
0o"
0j
0h
1f
0d
0i
1g
1e
1c
1k
1j
1i
0g
0e
0k
1l
0l
#7200
0"
0a
0b
#7209
1"
1a
1b
1o"
1d
0c
1e
#8100
0"
0a
0b
#8109
1"
1a
1b
1n"
0o"
0f
0d
0e
1c
1f
1g
1e
0g
#9000
0"
0a
0b
#9009
1"
1a
1b
1o"
1d
0c
0f
0e
1g
#9900
0"
0a
0b
#9909
1"
1a
1b
1m"
0n"
0o"
1h
1f
0d
0g
1e
1c
0j
0h
0i
1g
0e
1k
1j
1i
0k
1l
0l
#10800
0"
0a
0b
#10809
1"
1a
1b
1o"
1d
0c
1e
#11700
0"
0a
0b
#11709
1"
1a
1b
1n"
0o"
0f
0d
0e
1c
1h
1f
0g
1e
0j
0h
0i
1g
1k
1j
1i
0k
1l
0l
#12600
0"
0a
0b
#12609
1"
1a
1b
1o"
1G!
1d
0c
0f
0e
1h
0g
0j
0i
1k
1l
#13500
0"
0a
0b
#13509
1"
1a
1b
1k"
0l"
0m"
0n"
0o"
1m
0k
0G!
1j
0h
1f
0d
1i
1g
1e
1c
0m
1k
1n
0l
0i
0g
0e
0n
1l
#14400
0"
0a
0b
#14409
1"
1a
1b
1o"
1d
0c
1e
#15300
0"
0a
0b
#15309
1"
1a
1b
1n"
0o"
0f
0d
0e
1c
1f
1g
1e
0g
#16200
0"
0a
0b
#16209
1"
1a
1b
1o"
1d
0c
0f
0e
1g
#17100
0"
0a
0b
#17109
1"
1a
1b
1m"
0n"
0o"
1h
1f
0d
0g
1e
1c
0h
1i
1g
0e
0i
#18000
0"
0a
0b
#18009
1"
1a
1b
1o"
1d
0c
1e
#18900
0"
0a
0b
#18909
1"
1a
1b
1n"
0o"
0f
0d
0e
1c
1h
1f
0g
1e
0h
1i
1g
0i
#19800
0"
0a
0b
#19809
1"
1a
1b
1o"
1d
0c
0f
0e
1h
0g
1i
#20700
0"
0a
0b
#20709
1"
1a
1b
1l"
0m"
0n"
0o"
0j
0h
1f
0d
0i
1g
1e
1c
1m
0k
1j
1i
0g
0e
0m
1k
1n
0l
0n
1l
#21600
0"
0a
0b
#21609
1"
1a
1b
1o"
1d
0c
1e
#22500
0"
0a
0b
#22509
1"
1a
1b
1n"
0o"
0f
0d
0e
1c
1f
1g
1e
0g
#23400
0"
0a
0b
#23409
1"
1a
1b
1o"
1d
0c
0f
0e
1g
#24300
0"
0a
0b
#24309
1"
1a
1b
1m"
0n"
0o"
1h
1f
0d
0g
1e
1c
0j
0h
0i
1g
0e
1m
0k
1j
1i
0m
1k
1n
0l
0n
1l
#25200
0"
0a
0b
#25209
1"
1a
1b
1o"
1d
0c
1e
#26100
0"
0a
0b
#26109
1"
1a
1b
1n"
0o"
0f
0d
0e
1c
1h
1f
0g
1e
0j
0h
0i
1g
1m
0k
1j
1i
0m
1k
1n
0l
0n
1l
#27000
0"
0a
0b
#27009
1"
1a
1b
1o"
1G!
1d
0c
0f
0e
1h
0g
0j
0i
1m
0k
1n
0l
#27900
0"
0a
0b
#27909
1"
1a
1b
1j"
0k"
0l"
0m"
0n"
0o"
0o
0m
1k
0G!
1j
0h
1f
0d
0n
1i
1g
1e
1c
1p
1o
0k
1n
1l
0i
0g
0e
0p
1q
0l
0q
#28800
0"
0a
0b
#28809
1"
1a
1b
1o"
1d
0c
1e
#29700
0"
0a
0b
#29709
1"
1a
1b
1n"
0o"
0f
0d
0e
1c
1f
1g
1e
0g
#30600
0"
0a
0b
#30609
1"
1a
1b
1o"
1d
0c
0f
0e
1g
#31500
0"
0a
0b
#31509
1"
1a
1b
1m"
0n"
0o"
1h
1f
0d
0g
1e
1c
0h
1i
1g
0e
0i
#32400
0"
0a
0b
#32409
1"
1a
1b
1o"
1d
0c
1e
#33300
0"
0a
0b
#33309
1"
1a
1b
1n"
0o"
0f
0d
0e
1c
1h
1f
0g
1e
0h
1i
1g
0i
#34200
0"
0a
0b
#34209
1"
1a
1b
1o"
1d
0c
0f
0e
1h
0g
1i
#35100
0"
0a
0b
#35109
1"
1a
1b
1l"
0m"
0n"
0o"
0N!
0j
0h
1f
0d
0i
1g
1e
1c
1k
1j
1i
0g
0e
0k
1l
0l
#36000
0"
0a
0b
#36009
1"
1a
1b
1o"
1d
0c
1e
#36900
0"
0a
0b
#36909
1"
1a
1b
1n"
0o"
0f
0d
0e
1c
1f
1g
1e
0g
#37800
0"
0a
0b
#37809
1"
1a
1b
1o"
1d
0c
0f
0e
1g
#38700
0"
0a
0b
#38709
1"
1a
1b
1m"
0n"
0o"
1h
1f
0d
0g
1e
1c
0j
0h
0i
1g
0e
1k
1j
1i
0k
1l
0l
#39600
0"
0a
0b
#39609
1"
1a
1b
1o"
1d
0c
1e
#40500
0"
0a
0b
#40509
1"
1a
1b
1n"
0o"
0f
0d
0e
1c
1h
1f
0g
1e
0j
0h
0i
1g
1k
1j
1i
0k
1l
0l
#41400
0"
0a
0b
#41409
1"
1a
1b
1o"
1G!
1d
0c
0f
0e
1h
0g
0j
0i
1k
1l
#42300
0"
0a
0b
#42309
1"
1a
1b
1k"
0l"
0m"
0n"
0o"
1m
0k
0G!
1j
0h
1f
0d
1i
1g
1e
1c
0o
0m
1k
0n
0l
0i
0g
0e
1p
1o
1n
1l
0p
1q
0q
#43200
0"
0a
0b
#43209
1"
1a
1b
1o"
1d
0c
1e
#44100
0"
0a
0b
#44109
1"
1a
1b
1n"
0o"
0f
0d
0e
1c
1f
1g
1e
0g
#45000
0"
0a
0b
#45009
1"
1a
1b
1o"
1d
0c
0f
0e
1g
#45900
0"
0a
0b
#45909
1"
1a
1b
1m"
0n"
0o"
1h
1f
0d
0g
1e
1c
0h
1i
1g
0e
0i
#46800
0"
0a
0b
#46809
1"
1a
1b
1o"
1d
0c
1e
#47700
0"
0a
0b
#47709
1"
1a
1b
1n"
0o"
0f
0d
0e
1c
1h
1f
0g
1e
0h
1i
1g
0i
#48600
0"
0a
0b
#48609
1"
1a
1b
1o"
1d
0c
0f
0e
1h
0g
1i
#49500
0"
0a
0b
#49509
1"
1a
1b
1l"
0m"
0n"
0o"
0j
0h
1f
0d
0i
1g
1e
1c
1m
0k
1j
1i
0g
0e
0o
0m
1k
0n
0l
1p
1o
1n
1l
0p
1q
0q
#50400
0"
0a
0b
#50409
1"
1a
1b
1o"
1d
0c
1e
#51300
0"
0a
0b
#51309
1"
1a
1b
1n"
0o"
0f
0d
0e
1c
1f
1g
1e
0g
#52200
0"
0a
0b
#52209
1"
1a
1b
1o"
1d
0c
0f
0e
1g
#53100
0"
0a
0b
#53109
1"
1a
1b
1m"
0n"
0o"
1h
1f
0d
0g
1e
1c
0j
0h
0i
1g
0e
1m
0k
1j
1i
0o
0m
1k
0n
0l
1p
1o
1n
1l
0p
1q
0q
#54000
0"
0a
0b
#54009
1"
1a
1b
1o"
1d
0c
1e
#54900
0"
0a
0b
#54909
1"
1a
1b
1n"
0o"
0f
0d
0e
1c
1h
1f
0g
1e
0j
0h
0i
1g
1m
0k
1j
1i
0o
0m
1k
0n
0l
1p
1o
1n
1l
0p
1q
0q
#55800
0"
0a
0b
#55809
1"
1a
1b
1o"
1G!
1d
0c
0f
0e
1h
0g
0j
0i
1m
0k
0o
0n
0l
1p
1q
#56700
0"
0a
0b
#56709
1"
1a
1b
1i"
0j"
0k"
0l"
0m"
0n"
0o"
1#!
1r
0p
1o
0m
1k
0G!
1j
0h
1f
0d
1n
1i
1g
1e
1c
0r
1p
0k
1s
0q
0n
1l
0i
0g
0e
0s
1q
0l
#57600
0"
0a
0b
#57609
1"
1a
1b
1o"
1d
0c
1e
#58500
0"
0a
0b
#58509
1"
1a
1b
1n"
0o"
0f
0d
0e
1c
1f
1g
1e
0g
#59400
0"
0a
0b
#59409
1"
1a
1b
1o"
1d
0c
0f
0e
1g
#60300
0"
0a
0b
#60309
1"
1a
1b
1m"
0n"
0o"
1h
1f
0d
0g
1e
1c
0h
1i
1g
0e
0i
#61200
0"
0a
0b
#61209
1"
1a
1b
1o"
1d
0c
1e
#62100
0"
0a
0b
#62109
1"
1a
1b
1n"
0o"
0f
0d
0e
1c
1h
1f
0g
1e
0h
1i
1g
0i
#63000
0"
0a
0b
#63009
1"
1a
1b
1o"
1d
0c
0f
0e
1h
0g
1i
#63900
0"
0a
0b
#63909
1"
1a
1b
1l"
0m"
0n"
0o"
0j
0h
1f
0d
0i
1g
1e
1c
1k
1j
1i
0g
0e
0k
1l
0l
#64800
0"
0a
0b
#64809
1"
1a
1b
1o"
1d
0c
1e
#65700
0"
0a
0b
#65709
1"
1a
1b
1n"
0o"
0f
0d
0e
1c
1f
1g
1e
0g
#66600
0"
0a
0b
#66609
1"
1a
1b
1o"
1d
0c
0f
0e
1g
#67500
0"
0a
0b
#67509
1"
1a
1b
1m"
0n"
0o"
1h
1f
0d
0g
1e
1c
0j
0h
0i
1g
0e
1k
1j
1i
0k
1l
0l
#68400
0"
0a
0b
#68409
1"
1a
1b
1o"
1d
0c
1e
#69300
0"
0a
0b
#69309
1"
1a
1b
1n"
0o"
0f
0d
0e
1c
1h
1f
0g
1e
0j
0h
0i
1g
1k
1j
1i
0k
1l
0l
#70200
0"
0a
0b
#70209
1"
1a
1b
1o"
1G!
1d
0c
0f
0e
1h
0g
0j
0i
1k
1l
#71100
0"
0a
0b
#71109
1"
1a
1b
1k"
0l"
0m"
0n"
0o"
0#!
1m
0k
0G!
1j
0h
1f
0d
1i
1g
1e
1c
0m
1k
1n
0l
0i
0g
0e
0n
1l
#72000
0"
0a
0b
#72009
1"
1a
1b
1o"
1d
0c
1e
#72900
0"
0a
0b
#72909
1"
1a
1b
1n"
0o"
0f
0d
0e
1c
1f
1g
1e
0g
#73800
0"
0a
0b
#73809
1"
1a
1b
1o"
1d
0c
0f
0e
1g
#74700
0"
0a
0b
#74709
1"
1a
1b
1m"
0n"
0o"
1h
1f
0d
0g
1e
1c
0h
1i
1g
0e
0i
#75600
0"
0a
0b
#75609
1"
1a
1b
1o"
1d
0c
1e
#76500
0"
0a
0b
#76509
1"
1a
1b
1n"
0o"
0f
0d
0e
1c
1h
1f
0g
1e
0h
1i
1g
0i
#77400
0"
0a
0b
#77409
1"
1a
1b
1o"
1d
0c
0f
0e
1h
0g
1i
#78300
0"
0a
0b
#78309
1"
1a
1b
1l"
0m"
0n"
0o"
0j
0h
1f
0d
0i
1g
1e
1c
1m
0k
1j
1i
0g
0e
0m
1k
1n
0l
0n
1l
#79200
0"
0a
0b
#79209
1"
1a
1b
1o"
1d
0c
1e
#80100
0"
0a
0b
#80109
1"
1a
1b
1n"
0o"
0f
0d
0e
1c
1f
1g
1e
0g
#81000
0"
0a
0b
#81009
1"
1a
1b
1o"
1d
0c
0f
0e
1g
#81900
0"
0a
0b
#81909
1"
1a
1b
1m"
0n"
0o"
1h
1f
0d
0g
1e
1c
0j
0h
0i
1g
0e
1m
0k
1j
1i
0m
1k
1n
0l
0n
1l
#82800
0"
0a
0b
#82809
1"
1a
1b
1o"
1d
0c
1e
#83700
0"
0a
0b
#83709
1"
1a
1b
1n"
0o"
0f
0d
0e
1c
1h
1f
0g
1e
0j
0h
0i
1g
1m
0k
1j
1i
0m
1k
1n
0l
0n
1l
#84600
0"
0a
0b
#84609
1"
1a
1b
1o"
1G!
1d
0c
0f
0e
1h
0g
0j
0i
1m
0k
1n
0l
#85500
0"
0a
0b
#85509
1"
1a
1b
1j"
0k"
0l"
0m"
0n"
0o"
0o
0m
1k
0G!
1j
0h
1f
0d
0n
1i
1g
1e
1c
1r
0p
1o
0k
1n
1l
0i
0g
0e
0r
1p
1s
0q
0l
0s
1q
#86400
0"
0a
0b
#86409
1"
1a
1b
1o"
1d
0c
1e
#87300
0"
0a
0b
#87309
1"
1a
1b
1n"
0o"
0f
0d
0e
1c
1f
1g
1e
0g
#88200
0"
0a
0b
#88209
1"
1a
1b
1o"
1d
0c
0f
0e
1g
#89100
0"
0a
0b
#89109
1"
1a
1b
1m"
0n"
0o"
1h
1f
0d
0g
1e
1c
0h
1i
1g
0e
0i
#90000
0"
0a
0b
#90009
1"
1a
1b
1o"
1d
0c
1e
#90900
0"
0a
0b
#90909
1"
1a
1b
1n"
0o"
0f
0d
0e
1c
1h
1f
0g
1e
0h
1i
1g
0i
#91800
0"
0a
0b
#91809
1"
1a
1b
1o"
1d
0c
0f
0e
1h
0g
1i
#92700
0"
0a
0b
#92709
1"
1a
1b
1l"
0m"
0n"
0o"
0j
0h
1f
0d
0i
1g
1e
1c
1k
1j
1i
0g
0e
0k
1l
0l
#93600
0"
0a
0b
#93609
1"
1a
1b
1o"
1d
0c
1e
#94500
0"
0a
0b
#94509
1"
1a
1b
1n"
0o"
0f
0d
0e
1c
1f
1g
1e
0g
#95400
0"
0a
0b
#95409
1"
1a
1b
1o"
1d
0c
0f
0e
1g
#96300
0"
0a
0b
#96309
1"
1a
1b
1m"
0n"
0o"
1h
1f
0d
0g
1e
1c
0j
0h
0i
1g
0e
1k
1j
1i
0k
1l
0l
#97200
0"
0a
0b
#97209
1"
1a
1b
1o"
1d
0c
1e
#98100
0"
0a
0b
#98109
1"
1a
1b
1n"
0o"
0f
0d
0e
1c
1h
1f
0g
1e
0j
0h
0i
1g
1k
1j
1i
0k
1l
0l
#99000
0"
0a
0b
#99009
1"
1a
1b
1o"
1G!
1d
0c
0f
0e
1h
0g
0j
0i
1k
1l
#99900
0"
0a
0b
#99909
1"
1a
1b
1k"
0l"
0m"
0n"
0o"
1m
0k
0G!
1j
0h
1f
0d
1i
1g
1e
1c
0o
0m
1k
0n
0l
0i
0g
0e
1r
0p
1o
1n
1l
0r
1p
1s
0q
0s
1q
#100800
0"
0a
0b
#100809
1"
1a
1b
1o"
1d
0c
1e
#101700
0"
0a
0b
#101709
1"
1a
1b
1n"
0o"
0f
0d
0e
1c
1f
1g
1e
0g
#102600
0"
0a
0b
#102609
1"
1a
1b
1o"
1d
0c
0f
0e
1g
#103500
0"
0a
0b
#103509
1"
1a
1b
1m"
0n"
0o"
1h
1f
0d
0g
1e
1c
0h
1i
1g
0e
0i
#104400
0"
0a
0b
#104409
1"
1a
1b
1o"
1d
0c
1e
#105300
0"
0a
0b
#105309
1"
1a
1b
1n"
0o"
0f
0d
0e
1c
1h
1f
0g
1e
0h
1i
1g
0i
#106200
0"
0a
0b
#106209
1"
1a
1b
1o"
1d
0c
0f
0e
1h
0g
1i
#107100
0"
0a
0b
#107109
1"
1a
1b
1l"
0m"
0n"
0o"
0j
0h
1f
0d
0i
1g
1e
1c
1m
0k
1j
1i
0g
0e
0o
0m
1k
0n
0l
1r
0p
1o
1n
1l
0r
1p
1s
0q
0s
1q
#108000
0"
0a
0b
#108009
1"
1a
1b
1o"
1d
0c
1e
#108900
0"
0a
0b
#108909
1"
1a
1b
1n"
0o"
0f
0d
0e
1c
1f
1g
1e
0g
#109800
0"
0a
0b
#109809
1"
1a
1b
1o"
1d
0c
0f
0e
1g
#110700
0"
0a
0b
#110709
1"
1a
1b
1m"
0n"
0o"
1h
1f
0d
0g
1e
1c
0j
0h
0i
1g
0e
1m
0k
1j
1i
0o
0m
1k
0n
0l
1r
0p
1o
1n
1l
0r
1p
1s
0q
0s
1q
